\relax 
\bibstyle{woc}
\citation{km3netsite}
\citation{Aiello20151}
\citation{Tchiarusi:highenergy}
\citation{C.Pellegrino:2towerstrigger}
\select@language{english}
\@writefile{toc}{\select@language{english}}
\@writefile{lof}{\select@language{english}}
\@writefile{lot}{\select@language{english}}
\@writefile{toc}{\contentsline {section}{\numberline {1}Introduction}{1}}
\newlabel{intro}{{1}{1}}
\citation{Manzali2015}
\citation{A.Lonardo:nanet}
\@writefile{toc}{\contentsline {section}{\numberline {2}The TriDAS software}{2}}
\newlabel{tridas}{{2}{2}}
\@writefile{lof}{\contentsline {figure}{\numberline {1}{\ignorespaces TriDAS block diagram}}{2}}
\newlabel{tridasblock}{{1}{2}}
\@writefile{toc}{\contentsline {subsection}{\numberline {2.1}TriDAS Core}{2}}
\newlabel{TriDASCore}{{2.1}{2}}
\@writefile{toc}{\contentsline {subsection}{\numberline {2.2}TriDAS Control}{3}}
\@writefile{toc}{\contentsline {subsubsection}{\numberline {2.2.1}TSC}{3}}
\newlabel{TSC}{{2.2.1}{3}}
\@writefile{toc}{\contentsline {subsection}{\numberline {2.3}WebServer}{3}}
\newlabel{WS}{{2.3}{3}}
\citation{1748-0221-10-04-C04011}
\@writefile{lof}{\contentsline {figure}{\numberline {2}{\ignorespaces TSC State Machine}}{4}}
\newlabel{statemachine}{{2}{4}}
\@writefile{toc}{\contentsline {subsubsection}{\numberline {2.3.1}Escalation}{4}}
\newlabel{ESCALATION}{{2.3.1}{4}}
\@writefile{toc}{\contentsline {subsubsection}{\numberline {2.3.2}WebSocket}{4}}
\newlabel{WEBSOCKET}{{2.3.2}{4}}
\@writefile{lof}{\contentsline {figure}{\numberline {3}{\ignorespaces Portopalo TriDAS' Network}}{4}}
\newlabel{network}{{3}{4}}
\bibdata{biblio.bib}
\bibcite{km3netsite}{{1}{}{{}}{{}}}
\bibcite{Aiello20151}{{2}{}{{}}{{}}}
\bibcite{Tchiarusi:highenergy}{{3}{}{{}}{{}}}
\bibcite{C.Pellegrino:2towerstrigger}{{4}{}{{}}{{}}}
\bibcite{Manzali2015}{{5}{}{{}}{{}}}
\bibcite{A.Lonardo:nanet}{{6}{}{{}}{{}}}
\providecommand\NAT@force@numbers{}\NAT@force@numbers
\@writefile{toc}{\contentsline {section}{\numberline {3}Conclusion}{5}}
